Current Time: 0
(3,2,3)
(1,8,2)
(2,10,3)
(0,13,3)
Queues0:Empty
Queues1:Empty
Current Time: 1
(3,2,3)
(1,8,2)
(2,10,3)
(0,13,3)
Queues0:Empty
Queues1:Empty
Current Time: 2
(1,8,2)
(2,10,3)
(0,13,3)
Queues0(3,2,3)
Queues1:Empty
Current Time: 3
(1,8,2)
(2,10,3)
(0,13,3)
Queues0(3,2,3)
Queues1:Empty
Current Time: 4
(1,8,2)
(2,10,3)
(0,13,3)
Queues0(3,2,3)
Queues1:Empty
Current Time: 5
(1,8,2)
(2,10,3)
(0,13,3)
Queues0:Empty
Queues1:Empty
Current Time: 6
(1,8,2)
(2,10,3)
(0,13,3)
Queues0:Empty
Queues1:Empty
Current Time: 7
(1,8,2)
(2,10,3)
(0,13,3)
Queues0:Empty
Queues1:Empty
Current Time: 8
(2,10,3)
(0,13,3)
Queues0(1,8,2)
Queues1:Empty
Current Time: 9
(2,10,3)
(0,13,3)
Queues0(1,8,2)
Queues1:Empty
Current Time: 10
(0,13,3)
Queues0:Empty
Queues1(2,10,3)
Current Time: 11
(0,13,3)
Queues0:Empty
Queues1(2,10,3)
Current Time: 12
(0,13,3)
Queues0:Empty
Queues1(2,10,3)
Current Time: 13
Queues0(0,13,3)
Queues1:Empty
Wainting time:2.833333333333333